Lesson 12 - Factors and Dates
…
Examining the Descriptive Statistics

After I have created SE1, I can examine SE1 differences by a variable such as Supervisor.District (San Francisco is divided into districts for governing, see https://sfgov.org/ccsfgsa/sites/default/files/2000%20Census%3A%20Redistricting%20Task%20Force/ShowImage__67e5.jpg for an idea of what a supervisor district means)

library(dplyr)
FD12 %>% 
  select(Supervisor.District, daySTART, SE1) %>%
  group_by(Supervisor.District, daySTART < 77) %>%
  summarise(n = n(),
            median = median(SE1),
            IQR = IQR(SE1)) %>%
  arrange(Supervisor.District) 

## # A tibble: 24 x 5
## # Groups:   Supervisor.District [12]
##    Supervisor.District `daySTART < 77`     n median     IQR
##    <chr>               <lgl>           <int> <drtn>   <dbl>
##  1 1                   FALSE            1758 173 secs  122 
##  2 1                   TRUE             1287 177 secs  123 
##  3 10                  FALSE            4197 172 secs  139 
##  4 10                  TRUE             2779 179 secs  118.
##  5 11                  FALSE            1757 175 secs  136 
##  6 11                  TRUE             1325 175 secs  118 
##  7 2                   FALSE            2537 179 secs  115 
##  8 2                   TRUE             1722 179 secs  112 
##  9 3                   FALSE            4127 165 secs  136 
## 10 3                   TRUE             3685 171 secs  130 
## # … with 14 more rows

Irritating, the districts aren’t in order. Supervisor.District is a factor, please correct those kinds of issues if they should arise in your lesson result such as:

## Adding missing grouping variables: `Incident.Number`

## `summarise()` regrouping output by 'Supervisor.District' (override with `.groups` argument)

## # A tibble: 24 x 5
## # Groups:   Supervisor.District [12]
##    Supervisor.District `daySTART < 77`     n median     IQR
##    <chr>               <lgl>           <int> <drtn>   <dbl>
##  1 1                   FALSE            1758 173 secs  122 
##  2 1                   TRUE             1287 177 secs  123 
##  3 2                   FALSE            2537 179 secs  115 
##  4 2                   TRUE             1722 179 secs  112 
##  5 3                   FALSE            4127 165 secs  136 
##  6 3                   TRUE             3685 171 secs  130 
##  7 4                   FALSE            1521 183 secs  121 
##  8 4                   TRUE             1115 184 secs  116.
##  9 5                   FALSE            3835 170 secs  130 
## 10 5                   TRUE             2984 171 secs  119 
## # … with 14 more rows
…
