Lesson 9 - ggplot2
…
4. Line Graph (numeric variables)

Increasingly these have a time dimension and it’s increasingly an important component of data. So while I haven’t lectured on time, it’s not difficult, we’ve seen this data before. The only twist is the need to “pivot” the data from wide format (AAPL) to long format (AAPL2020). In other words, this graph requires more data wrangling to get the right look:

AAPL

## # A tibble: 1,259 x 7
##    Date        Open  High   Low Close `Adj Close`    Volume
##    <date>     <dbl> <dbl> <dbl> <dbl>       <dbl>     <dbl>
##  1 2015-07-09  124.  124.  119.  120.        111.  78595000
##  2 2015-07-10  122.  124.  121.  123.        114.  61354500
##  3 2015-07-13  125.  126.  124.  126.        116.  41440500
##  4 2015-07-14  126.  126.  125.  126.        116.  31768100
##  5 2015-07-15  126.  127.  126.  127.        117.  33649200
##  6 2015-07-16  128.  129.  127.  129.        118.  36222400
##  7 2015-07-17  129.  130.  128.  130.        119.  46164700
##  8 2015-07-20  131.  133.  131.  132.        122.  58900200
##  9 2015-07-21  133.  133.  130.  131.        121.  76756400
## 10 2015-07-22  122.  126.  122.  125.        115. 115450600
## # … with 1,249 more rows

To make things a little simpler, we rid ourselves of what we don’t need (the other rows and a couple of useless variables) and use the pivot_longer() function to restructure the data:

AAPL2020 <- AAPL %>% 
    slice(1227:1256) %>%  ## heh, slicing apple...
    select(Date, Open, High, Low, Close) %>% 
    pivot_longer(-Date, names_to = "status", values_to = "price")
AAPL2020

## # A tibble: 120 x 3
##    Date       status price
##    <date>     <chr>  <dbl>
##  1 2020-05-21 Open    319.
##  2 2020-05-21 High    321.
##  3 2020-05-21 Low     316.
##  4 2020-05-21 Close   317.
##  5 2020-05-22 Open    316.
##  6 2020-05-22 High    319.
##  7 2020-05-22 Low     315.
##  8 2020-05-22 Close   319.
##  9 2020-05-26 Open    324.
## 10 2020-05-26 High    324.
## # … with 110 more rows
…
